##CHROM	FINAL_ESTIMATE	CENTURION_ESTIMATE	INIT_ESTIMATE	PERCENT_DEVIATION
Chr1	139814881	139814881	140000000	0.10%
Chr2	175067889	175067889	175000000	0.04%
Chr3	168385362	168385362	173000000	2.67%
Chr4	187888766	187888766	193000000	2.65%
Chr5	120498777	120498777	120000000	0.42%
Chr6	77280384	77280384	76000000	1.33%
Chr7	118157359	118157359	122000000	3.15%
Chr8	41857874	41857874	46000000	8.08%
Chr9	51895683	51895683	55000000	5.64%
Chr10	50000000	42888034	50000000	14.22%
Chr11	33121344	33121344	30000000	7.40%
