##CHROM	FINAL_ESTIMATE	CENTURION_ESTIMATE	INIT_ESTIMATE	PERCENT_DEVIATION
Chr1	166197817	166197817	160000000	3.87%
Chr2	208741402	208741402	195000000	7.05%
Chr3	500010	500010	6750000	3.75%
Chr4	64868563	64868563	65000000	0.14%
Chr5	104932477	104932477	100000000	4.93%
Chr6	15000000	2388706	15000000	10.31%
Chr7	113027583	113027583	105000000	7.65%
Chr8	102682140	102682140	100000000	2.68%
Chr9	10000000	33293757	10000000	32.19%
Chr10	75000000	79499989	75000000	6.00%
Chr11	3000000	14764530	3000000	15.73%
Chr12	40000000	44621102	40000000	11.55%
Chr13	6707114	6707114	3000000	5.86%
